<svg width="24" height="17" viewBox="0 0 24 17" fill="none" xmlns="http://www.w3.org/2000/svg">
<path d="M18.9857 1.40329L16.6357 4.13429C16.3487 4.46729 15.8287 4.46129 15.5517 4.11929L13.3327 1.39329C13.0817 1.08529 13.3017 0.623291 13.6977 0.623291H18.6277C19.0307 0.623291 19.2477 1.09729 18.9857 1.40329Z" fill="white"/>
<path d="M14.9835 7.20049L12.3975 15.4805C12.2595 15.9215 11.6355 15.9215 11.4975 15.4805L8.91054 7.20049C8.76854 6.74549 9.10854 6.28249 9.58554 6.28249H14.3095C14.7865 6.28249 15.1265 6.74549 14.9835 7.20049Z" fill="white"/>
<path d="M5.91264 4.32909L3.73764 1.73009C3.45464 1.39209 2.93564 1.39209 2.65364 1.73009L0.478642 4.32909C0.221642 4.63609 0.439642 5.10309 0.839642 5.10309H5.55164C5.95164 5.10309 6.16964 4.63609 5.91264 4.32909Z" fill="white"/>
<path d="M21.3507 1.72109L23.5337 4.32909C23.7907 4.63609 23.5727 5.10309 23.1727 5.10309H18.3847C17.9807 5.10309 17.7637 4.63009 18.0267 4.32409L20.2727 1.71309C20.5567 1.38209 21.0707 1.38609 21.3507 1.72109Z" fill="white"/>
<path d="M10.0532 5.10349H13.8412C14.2392 5.10349 14.4582 4.64249 14.2072 4.33349L12.4952 2.23049C12.2132 1.88349 11.6822 1.88349 11.3992 2.23049L9.68724 4.33349C9.43724 4.64249 9.65624 5.10349 10.0532 5.10349Z" fill="white"/>
<path d="M13.4553 16.0449L16.2983 6.94389C16.4213 6.54989 16.7863 6.28189 17.1983 6.28189H22.9973C23.4133 6.28189 23.6253 6.78189 23.3373 7.08089L14.2443 16.5129C13.8993 16.8709 13.3073 16.5199 13.4553 16.0449Z" fill="white"/>
<path d="M8.35694 4.10309L10.5619 1.39309C10.8129 1.08509 10.5939 0.624091 10.1959 0.624091H5.35694C4.95694 0.624091 4.73894 1.09109 4.99594 1.39809L7.26594 4.11009C7.55094 4.45109 8.07594 4.44709 8.35694 4.10309Z" fill="white"/>
<path d="M1.00234 6.28229H6.69634C7.10934 6.28229 7.47334 6.55029 7.59634 6.94429L10.4293 16.0123C10.5773 16.4883 9.98334 16.8393 9.63834 16.4793L0.661342 7.07929C0.375342 6.77929 0.587342 6.28229 1.00234 6.28229Z" fill="white"/>
</svg>
