<svg width="22" height="17" viewBox="0 0 22 17" fill="none" xmlns="http://www.w3.org/2000/svg">
<path fill-rule="evenodd" clip-rule="evenodd" d="M1.67479 3.9976H20.3248C20.8978 3.9976 21.3618 4.4616 21.3618 5.0336V15.3946C21.3618 15.9666 20.8978 16.4306 20.3248 16.4306H1.67479C1.10279 16.4306 0.638794 15.9666 0.638794 15.3946V5.0336C0.638794 4.4616 1.10279 3.9976 1.67479 3.9976ZM2.71079 0.889599H19.2888C19.8618 0.889599 20.3248 1.3526 20.3248 1.9256V2.9616H1.67479V1.9256C1.67479 1.3526 2.13879 0.889599 2.71079 0.889599ZM10.9998 13.3226C12.7168 13.3226 14.1088 11.9306 14.1088 10.2146C14.1088 8.4976 12.7168 7.1056 10.9998 7.1056C9.28279 7.1056 7.89179 8.4976 7.89179 10.2146C7.89179 11.9306 9.28279 13.3226 10.9998 13.3226ZM3.74679 6.0696C3.17479 6.0696 2.71079 6.5336 2.71079 7.1056V13.3226C2.71079 13.8946 3.17479 14.3586 3.74679 14.3586C4.31979 14.3586 4.78279 13.8946 4.78279 13.3226V7.1056C4.78279 6.5336 4.31979 6.0696 3.74679 6.0696ZM18.2528 6.0696C17.6808 6.0696 17.2168 6.5336 17.2168 7.1056V13.3226C17.2168 13.8946 17.6808 14.3586 18.2528 14.3586C18.8248 14.3586 19.2888 13.8946 19.2888 13.3226V7.1056C19.2888 6.5336 18.8248 6.0696 18.2528 6.0696Z" fill="white"/>
</svg>
