<svg width="24" height="21" viewBox="0 0 24 21" fill="none" xmlns="http://www.w3.org/2000/svg">
<path fill-rule="evenodd" clip-rule="evenodd" d="M16.7809 2.9297C18.3149 2.5197 19.9359 2.5117 21.6969 3.2357C22.1559 3.4247 22.6839 3.2407 22.9329 2.8097C23.2359 2.2847 22.9949 1.6307 22.4459 1.3747C18.8699 -0.287299 14.3989 -0.230299 12.0079 4.3447C10.1999 0.417701 6.73286 -0.872299 1.57286 1.3737C1.01586 1.6167 0.780857 2.2847 1.08486 2.8117C1.33286 3.2417 1.86586 3.4397 2.31786 3.2357C4.01686 2.4697 5.40886 2.3517 6.94086 2.7627C8.21586 3.1037 9.54786 3.5707 11.0939 5.2427C5.66186 4.9497 3.13886 8.4447 3.05286 12.5857C3.03986 13.1867 3.45486 13.7087 4.05486 13.7087C4.55186 13.7087 4.84386 13.3067 5.04086 12.8497C6.60686 9.2177 8.36186 7.7137 11.5559 6.7127L8.92786 20.7267H14.9449L14.5689 18.7217H11.9359V17.7187H14.3809L14.0049 15.7137H11.9369V14.7107H13.8179L13.4409 12.7047H11.9369V11.7017H13.2529L12.3159 6.7057C14.8889 7.3167 18.0139 9.3647 18.9749 12.8357C19.1089 13.3207 19.4599 13.7087 19.9629 13.7087C20.5629 13.7087 21.0239 13.1837 20.9649 12.5857C20.4789 7.6297 18.5369 5.1347 12.7709 5.3017C14.8599 3.4637 15.5079 3.2707 16.7809 2.9297Z" fill="white"/>
</svg>
